hw5.Rmd
…
Find the daily sales liquor sales in Ames in 2018

ames2018 <- data %>% filter(Year==2018)
ames2018 %>% group_by(Month, Day)  %>% summarize( 
          numSales = n(), 
          volSold = sum(`Volume Sold (Liters)`, na.rm = TRUE),
          moneySpent = sum(`Sale (Dollars)`, na.rm = TRUE)
)

## # A tibble: 146 x 5
## # Groups:   Month [?]
##    Month   Day numSales  volSold moneySpent
##    <dbl> <int>    <int>    <dbl>      <dbl>
##  1     1     3      859  6596.     104862. 
##  2     1     5      227  1966.      31048. 
##  3     1    10     1028 10250.     141905. 
##  4     1    12      147  1347.      17881. 
##  5     1    17     1309 10196.     159217. 
##  6     1    18        1     0.75       11.2
##  7     1    19      151  1148.      15664. 
##  8     1    22        1     2.25        0  
##  9     1    24     1137  8273.     124823. 
## 10     1    25        1     0.75       20.8
## # ... with 136 more rows
…
